{
	"variables": [],
	"info": {
		"name": "Orange",
		"_postman_id": "8aca8bcc-9940-7487-d74b-5b4dbecba41f",
		"description": "",
		"schema": "https://schema.getpostman.com/json/collection/v2.0.0/collection.json"
	},
	"item": [
		{
			"name": "Validator",
			"description": "",
			"item": [
				{
					"name": "Save Transaction Valid Data",
					"request": {
						"url": "localhost:8080/transactions/create",
						"method": "POST",
						"header": [
							{
								"key": "Content-Type",
								"value": "application/json",
								"description": ""
							}
						],
						"body": {
							"mode": "raw",
							"raw": "{\n\t\"transactionType\" : \"WALLET_TO_WALLET\",\n\t\"senderIban\" : \"AB12 1234 1234 1234 1234 1\",\n\t\"senderCnp\" : \"5200406019517\",\n\t\"receiverIban\" : \"AB12 1234 1234 1234 1234 1\",\n\t\"receiverCnp\" : \"5200406019517\",\n\t\"name\" : \"testName\",\n\t\"description\" : \"asdadasd\",\n\t\"amount\": 3.5\n}"
						},
						"description": ""
					},
					"response": []
				},
				{
					"name": "Save Transaction Invalid Iban",
					"request": {
						"url": "localhost:8080/transactions/create",
						"method": "POST",
						"header": [
							{
								"key": "Content-Type",
								"value": "application/json",
								"description": ""
							}
						],
						"body": {
							"mode": "raw",
							"raw": "{\n\t\"transactionType\" : \"WALLET_TO_WALLET\",\n\t\"senderIban\" : \"AB12 1234 1234 1234 1234 1\",\n\t\"senderCnp\" : \"5200406019517\",\n\t\"receiverIban\" : \"AB12 1234 1234 1234 1234 1\",\n\t\"receiverCnp\" : \"5200406019517\",\n\t\"name\" : \"testName\",\n\t\"description\" : \"asdadasd\",\n\t\"amount\": 3.5\n}"
						},
						"description": ""
					},
					"response": []
				},
				{
					"name": "Save Transaction Invalid CNP",
					"request": {
						"url": "localhost:8080/transactions/create",
						"method": "POST",
						"header": [
							{
								"key": "Content-Type",
								"value": "application/json",
								"description": ""
							}
						],
						"body": {
							"mode": "raw",
							"raw": "{\n\t\"transactionType\" : \"WALLET_TO_WALLET\",\n\t\"senderIban\" : \"AB12 1234 1234 1234 1234 1\",\n\t\"senderCnp\" : \"5200406019517\",\n\t\"receiverIban\" : \"AB12 1234 1234 1234 1234 1\",\n\t\"receiverCnp\" : \"5200406019517\",\n\t\"name\" : \"testName\",\n\t\"description\" : \"asdadasd\",\n\t\"amount\": 3.5\n}"
						},
						"description": ""
					},
					"response": []
				}
			]
		},
		{
			"name": "Persistence",
			"description": "",
			"item": [
				{
					"name": "Save Transaction",
					"request": {
						"url": "localhost:8080/transactions/create",
						"method": "POST",
						"header": [
							{
								"key": "Content-Type",
								"value": "application/json",
								"description": ""
							}
						],
						"body": {
							"mode": "raw",
							"raw": "{\n\t\"transactionType\" : \"WALLET_TO_WALLET\",\n\t\"senderIban\" : \"AB12 1234 1234 1234 1234 1\",\n\t\"senderCnp\" : \"5200406019517\",\n\t\"receiverIban\" : \"AB12 1234 1234 1234 1234 1\",\n\t\"receiverCnp\" : \"5200406019517\",\n\t\"name\" : \"testName\",\n\t\"description\" : \"asdadasd\",\n\t\"amount\": 3.5\n}"
						},
						"description": ""
					},
					"response": []
				},
				{
					"name": "Generate Report",
					"request": {
						"url": "localhost:8080/transactions/create",
						"method": "GET",
						"header": [
							{
								"key": "Content-Type",
								"value": "application/json",
								"description": ""
							}
						],
						"body": {
							"mode": "raw",
							"raw": "{\n\t\"transactionType\" : \"WALLET_TO_WALLET\",\n\t\"senderIban\" : \"AB12 1234 1234 1234 1234 1\",\n\t\"senderCnp\" : \"5200406019517\",\n\t\"receiverIban\" : \"AB12 1234 1234 1234 1234 1\",\n\t\"receiverCnp\" : \"5200406019517\",\n\t\"name\" : \"testName\",\n\t\"description\" : \"asdadasd\",\n\t\"amount\": 3.5\n}"
						},
						"description": ""
					},
					"response": []
				}
			]
		}
	]
}